Ejemplo de uso del paquete eph
…
Los argumentos principales de la función
organize_panelsson:

bases: una lista con las bases de datos a poolear

variables: string con los nombres de las variables de
interés

window: un string que indique la ventana de distancia
de las observaciones (anual) o
(trimestral)

pool
#> # A tibble: 25,411 × 17
#>    CODUSU       NRO_H…¹ COMPO…²  ANO4 TRIME…³  CH04  CH06 ESTADO PONDERA Periodo
#>    <fct>          <int>   <int> <int>   <int> <int> <int>  <int>   <int> <yearq>
#>  1 TQRMNORUTHM…       1       1  2018       1     2    67      3    1008 2018 Q1
#>  2 TQRMNORUTHM…       1       2  2018       1     1    81      1    1008 2018 Q1
#>  3 TQRMNORUTHM…       1       3  2018       1     2    22      2    1008 2018 Q1
#>  4 TQRMNOVQVHM…       1       1  2018       1     1    62      1     886 2018 Q1
#>  5 TQRMNORPYHM…       1       1  2018       1     1    83      3     594 2018 Q1
#>  6 TQRMNORPYHM…       1       2  2018       1     2    79      3     594 2018 Q1
#>  7 TQRMNOTSYHK…       1       1  2018       1     2    79      3     700 2018 Q1
#>  8 TQRMNOQTTHK…       1       1  2018       1     1    38      1     700 2018 Q1
#>  9 TQRMNOQTTHK…       1       2  2018       1     2    33      1     700 2018 Q1
#> 10 TQRMNOQRVHM…       1       1  2018       1     1    64      1     546 2018 Q1
#> # … with 25,401 more rows, 7 more variables: ANO4_t1 <int>, TRIMESTRE_t1 <int>,
#> #   CH04_t1 <int>, CH06_t1 <int>, ESTADO_t1 <int>, PONDERA_t1 <int>,
#> #   consistencia <lgl>, and abbreviated variable names ¹​NRO_HOGAR, ²​COMPONENTE,
#> #   ³​TRIMESTRE
…
